%YAML 1.1
%TAG !u! tag:unity3d.com,2011:
--- !u!1 &7469339825951404560
GameObject:
  m_ObjectHideFlags: 0
  m_CorrespondingSourceObject: {fileID: 0}
  m_PrefabInstance: {fileID: 0}
  m_PrefabAsset: {fileID: 0}
  serializedVersion: 6
  m_Component:
  - component: {fileID: 7321402908499494703}
  - component: {fileID: 501175092146464939}
  - component: {fileID: 8811665786146084225}
  - component: {fileID: 334890832174750207}
  m_Layer: 0
  m_Name: CanvasGroup Fade In
  m_TagString: Untagged
  m_Icon: {fileID: 0}
  m_NavMeshLayer: 0
  m_StaticEditorFlags: 0
  m_IsActive: 1
--- !u!4 &7321402908499494703
Transform:
  m_ObjectHideFlags: 0
  m_CorrespondingSourceObject: {fileID: 0}
  m_PrefabInstance: {fileID: 0}
  m_PrefabAsset: {fileID: 0}
  m_GameObject: {fileID: 7469339825951404560}
  m_LocalRotation: {x: -0, y: -0, z: -0, w: 1}
  m_LocalPosition: {x: 0, y: 0, z: 0}
  m_LocalScale: {x: 1, y: 1, z: 1}
  m_Children: []
  m_Father: {fileID: 0}
  m_RootOrder: 0
  m_LocalEulerAnglesHint: {x: 0, y: 0, z: 0}
--- !u!114 &501175092146464939
MonoBehaviour:
  m_ObjectHideFlags: 0
  m_CorrespondingSourceObject: {fileID: 0}
  m_PrefabInstance: {fileID: 0}
  m_PrefabAsset: {fileID: 0}
  m_GameObject: {fileID: 7469339825951404560}
  m_Enabled: 1
  m_EditorHideFlags: 0
  m_Script: {fileID: 11500000, guid: 235a7be74c34dce49a5d656db9f6d7f5, type: 3}
  m_Name: 
  m_EditorClassIdentifier: 
  Alias: CanvasGroup
  Data:
    Duration: 0.4
    Target: {fileID: 0}
    Alpha: 1
    Ease: 250
--- !u!114 &8811665786146084225
MonoBehaviour:
  m_ObjectHideFlags: 0
  m_CorrespondingSourceObject: {fileID: 0}
  m_PrefabInstance: {fileID: 0}
  m_PrefabAsset: {fileID: 0}
  m_GameObject: {fileID: 7469339825951404560}
  m_Enabled: 1
  m_EditorHideFlags: 0
  m_Script: {fileID: 11500000, guid: 22a4ece327d664548972fce3ed29ab53, type: 3}
  m_Name: 
  m_EditorClassIdentifier: 
  Alias: CanvasGroup
  Data:
    Duration: 0
    Target: {fileID: 0}
    BlocksRaycasts: 1
--- !u!114 &334890832174750207
MonoBehaviour:
  m_ObjectHideFlags: 0
  m_CorrespondingSourceObject: {fileID: 0}
  m_PrefabInstance: {fileID: 0}
  m_PrefabAsset: {fileID: 0}
  m_GameObject: {fileID: 7469339825951404560}
  m_Enabled: 1
  m_EditorHideFlags: 0
  m_Script: {fileID: 11500000, guid: 837dfac66bd1bd44dbdf0ef9a2f54eae, type: 3}
  m_Name: 
  m_EditorClassIdentifier: 
  Alias: CanvasGroup
  Data:
    Duration: 0
    Target: {fileID: 0}
    Interactable: 1
