%YAML 1.1
%TAG !u! tag:unity3d.com,2011:
--- !u!114 &11400000
MonoBehaviour:
  m_ObjectHideFlags: 0
  m_CorrespondingSourceObject: {fileID: 0}
  m_PrefabInstance: {fileID: 0}
  m_PrefabAsset: {fileID: 0}
  m_GameObject: {fileID: 0}
  m_Enabled: 1
  m_EditorHideFlags: 0
  m_Script: {fileID: 11500000, guid: 16c5bf05958f9e44a9088c72e0728b33, type: 3}
  m_Name: IsLidActive
  m_EditorClassIdentifier: 
  _value: 1
  OnChange: {fileID: 11400000, guid: d0e60fd99986dd14ca5601125923c1be, type: 2}
