%YAML 1.1
%TAG !u! tag:unity3d.com,2011:
--- !u!114 &11400000
MonoBehaviour:
  m_ObjectHideFlags: 0
  m_CorrespondingSourceObject: {fileID: 0}
  m_PrefabInstance: {fileID: 0}
  m_PrefabAsset: {fileID: 0}
  m_GameObject: {fileID: 0}
  m_Enabled: 1
  m_EditorHideFlags: 0
  m_Script: {fileID: 11500000, guid: 1b053d19f3142914daf9967f9ff065d8, type: 3}
  m_Name: Highscore Data
  m_EditorClassIdentifier: 
  DefaultContent: "<WordStack>\r\n  <Highscore>\r\n  </Highscore>\r\n</WordStack>"
  RelativePath: /highscore.xml
