%YAML 1.1
%TAG !u! tag:unity3d.com,2011:
--- !u!114 &11400000
MonoBehaviour:
  m_ObjectHideFlags: 0
  m_CorrespondingSourceObject: {fileID: 0}
  m_PrefabInstance: {fileID: 0}
  m_PrefabAsset: {fileID: 0}
  m_GameObject: {fileID: 0}
  m_Enabled: 1
  m_EditorHideFlags: 0
  m_Script: {fileID: 11500000, guid: 082f38d5153a1f94aaaa25e51a8eedfa, type: 3}
  m_Name: SecondsTilNextRound
  m_EditorClassIdentifier: 
  _value: 0
  OnChange: {fileID: 11400000, guid: b0b12b2af5aa34a42bf763ae0a68033f, type: 2}
